…
``` r
# Flight delay kinda depends on origin
```

What are the most popular flight routes in the dataset?

``` r
flights %>% 
  group_by(origin, dest) %>% 
  count(sort = TRUE)
```

    ## # A tibble: 224 × 3
    ## # Groups:   origin, dest [224]
    ##    origin dest      n
    ##    <chr>  <chr> <int>
    ##  1 JFK    LAX   11262
    ##  2 LGA    ATL   10263
    ##  3 LGA    ORD    8857
    ##  4 JFK    SFO    8204
    ##  5 LGA    CLT    6168
    ##  6 EWR    ORD    6100
    ##  7 JFK    BOS    5898
    ##  8 LGA    MIA    5781
    ##  9 JFK    MCO    5464
    ## 10 EWR    BOS    5327
    ## # ℹ 214 more rows
…
Which routes experience the most delays?

``` r
# Total dep_delay  for each route
flights %>% 
  group_by(origin, dest) %>% 
  summarise(total_delay = sum(dep_delay, na.rm = TRUE)) %>% 
  arrange(desc(total_delay))
```

    ## `summarise()` has grouped output by 'origin'. You can override using the
    ## `.groups` argument.

    ## # A tibble: 224 × 3
    ## # Groups:   origin [3]
    ##    origin dest  total_delay
    ##    <chr>  <chr>       <dbl>
    ##  1 LGA    ATL        115425
    ##  2 JFK    SFO         97271
    ##  3 JFK    LAX         95418
    ##  4 LGA    ORD         91812
    ##  5 EWR    ORD         85683
    ##  6 EWR    ATL         75819
    ##  7 EWR    SFO         72950
    ##  8 JFK    BOS         67667
    ##  9 EWR    BOS         65877
    ## 10 JFK    MCO         57609
    ## # ℹ 214 more rows

``` r
# Total arr_delay for each route
flights %>% 
  group_by(origin, dest) %>% 
  summarise(total_delay = sum(arr_delay, na.rm = TRUE)) %>% 
  arrange(desc(total_delay))
```

    ## `summarise()` has grouped output by 'origin'. You can override using the
    ## `.groups` argument.

    ## # A tibble: 224 × 3
    ## # Groups:   origin [3]
    ##    origin dest  total_delay
    ##    <chr>  <chr>       <dbl>
    ##  1 LGA    ATL        113689
    ##  2 EWR    ATL         64525
    ##  3 EWR    ORD         52436
    ##  4 LGA    CLT         43991
    ##  5 EWR    RIC         41700
    ##  6 EWR    STL         38671
    ##  7 EWR    CLT         38077
    ##  8 LGA    FLL         37940
    ##  9 EWR    CVG         37508
    ## 10 LGA    BNA         34952
    ## # ℹ 214 more rows

``` r
# Average dep_delay for each route
flights %>% 
  group_by(origin, dest) %>% 
  summarise(avg_delay = mean(dep_delay, na.rm = TRUE)) %>% 
  arrange(desc(avg_delay))
```

    ## `summarise()` has grouped output by 'origin'. You can override using the
    ## `.groups` argument.

    ## # A tibble: 224 × 3
    ## # Groups:   origin [3]
    ##    origin dest  avg_delay
    ##    <chr>  <chr>     <dbl>
    ##  1 EWR    TYS        41.8
    ##  2 EWR    CAE        36.3
    ##  3 EWR    TUL        34.9
    ##  4 LGA    SBN        31.3
    ##  5 EWR    OKC        30.6
    ##  6 LGA    BHM        29.8
    ##  7 LGA    CAE        29.5
    ##  8 EWR    DSM        29.3
    ##  9 EWR    JAC        28.7
    ## 10 EWR    ROC        27.9
    ## # ℹ 214 more rows

``` r
# Average arr_delay for each route
flights %>% 
  group_by(origin, dest) %>% 
  summarise(avg_delay = mean(arr_delay, na.rm = TRUE)) %>% 
  arrange(desc(avg_delay))
```

    ## `summarise()` has grouped output by 'origin'. You can override using the
    ## `.groups` argument.

    ## # A tibble: 224 × 3
    ## # Groups:   origin [3]
    ##    origin dest  avg_delay
    ##    <chr>  <chr>     <dbl>
    ##  1 EWR    CAE        44.6
    ##  2 EWR    TYS        41.2
    ##  3 EWR    TUL        33.7
    ##  4 EWR    OKC        30.6
    ##  5 EWR    JAC        29.9
    ##  6 EWR    RIC        25.8
    ##  7 EWR    MKE        24.0
    ##  8 EWR    DSM        23.5
    ##  9 EWR    MSN        23.2
    ## 10 EWR    PWM        23.0
    ## # ℹ 214 more rows
…
flights_and_planes1 %>% 
  mutate(speed = distance / (air_time/ 60)) %>% 
  group_by(plane_year) %>% 
  summarise(avg_delay = mean(arr_delay, na.rm = TRUE),
            avg_speed = mean(speed, na.rm = TRUE)) %>% 
  arrange(desc(avg_delay))
```

    ## # A tibble: 47 × 3
    ##    plane_year avg_delay avg_speed
    ##         <int>     <dbl>     <dbl>
    ##  1       1983     14.0       398.
    ##  2       2004     10.2       395.
    ##  3       2002      9.94      385.
    ##  4       2006      9.90      390.
    ##  5       2005      9.80      389.
    ##  6       2003      9.65      392.
    ##  7       1974      8.14      314.
    ##  8       2001      7.93      395.
    ##  9       2007      7.54      372.
    ## 10       2000      7.26      380.
    ## # ℹ 37 more rows
…
